…
Load and explore apt\_buildings

``` r
apt_buildings
```

    ## # A tibble: 3,455 × 37
    ##       id air_conditioning amenities    balconies barrier_free_acc… bike_parking 
    ##    <dbl> <chr>            <chr>        <chr>     <chr>             <chr>        
    ##  1 10359 NONE             Outdoor rec… YES       YES               0 indoor par…
    ##  2 10360 NONE             Outdoor pool YES       NO                0 indoor par…
    ##  3 10361 NONE             <NA>         YES       NO                Not Available
    ##  4 10362 NONE             <NA>         YES       YES               Not Available
    ##  5 10363 NONE             <NA>         NO        NO                12 indoor pa…
    ##  6 10364 NONE             <NA>         NO        NO                Not Available
    ##  7 10365 NONE             <NA>         NO        YES               Not Available
    ##  8 10366 CENTRAL AIR      Indoor pool… YES       NO                Not Available
    ##  9 10367 NONE             <NA>         YES       YES               0 indoor par…
    ## 10 10368 NONE             Indoor recr… YES       YES               Not Available
    ## # … with 3,445 more rows, and 31 more variables: exterior_fire_escape <chr>,
    ## #   fire_alarm <chr>, garbage_chutes <chr>, heating_type <chr>, intercom <chr>,
    ## #   laundry_room <chr>, locker_or_storage_room <chr>, no_of_elevators <dbl>,
    ## #   parking_type <chr>, pets_allowed <chr>, prop_management_company_name <chr>,
    ## #   property_type <chr>, rsn <dbl>, separate_gas_meters <chr>,
    ## #   separate_hydro_meters <chr>, separate_water_meters <chr>,
    ## #   site_address <chr>, sprinkler_system <chr>, visitor_parking <chr>, …
…
Load and explore building\_permits

``` r
building_permits
```

    ## # A tibble: 20,680 × 14
    ##    permit_number issue_date project_value type_of_work  address project_descrip…
    ##    <chr>         <date>             <dbl> <chr>         <chr>   <chr>           
    ##  1 BP-2016-02248 2017-02-01             0 Salvage and … 4378 W… <NA>            
    ##  2 BU468090      2017-02-01             0 New Building  1111 R… <NA>            
    ##  3 DB-2016-04450 2017-02-01         35000 Addition / A… 3732 W… <NA>            
    ##  4 DB-2017-00131 2017-02-01         15000 Addition / A… 88 W P… <NA>            
    ##  5 DB452250      2017-02-01        181178 New Building  492 E … <NA>            
    ##  6 BP-2016-01458 2017-02-02             0 Salvage and … 3332 W… <NA>            
    ##  7 BP-2016-02022 2017-02-02         15000 Demolition /… 2873 W… <NA>            
    ##  8 BP-2016-02424 2017-02-02             0 Salvage and … 3579 E… <NA>            
    ##  9 BP-2016-02588 2017-02-02      65000000 New Building  620 CA… <NA>            
    ## 10 BP-2016-03697 2017-02-02         25000 Addition / A… 1868 W… <NA>            
    ## # … with 20,670 more rows, and 8 more variables: building_contractor <chr>,
    ## #   building_contractor_address <chr>, applicant <chr>,
    ## #   applicant_address <chr>, property_use <chr>, specific_use_category <chr>,
    ## #   year <dbl>, bi_id <dbl>
…
Load and explore parking\_meters

``` r
parking_meters
```

    ## # A tibble: 10,032 × 22
    ##    meter_head  r_mf_9a_6p r_mf_6p_10 r_sa_9a_6p r_sa_6p_10 r_su_9a_6p r_su_6p_10
    ##    <chr>       <chr>      <chr>      <chr>      <chr>      <chr>      <chr>     
    ##  1 Twin        $2.00      $4.00      $2.00      $4.00      $2.00      $4.00     
    ##  2 Pay Station $1.00      $1.00      $1.00      $1.00      $1.00      $1.00     
    ##  3 Twin        $1.00      $1.00      $1.00      $1.00      $1.00      $1.00     
    ##  4 Single      $1.00      $1.00      $1.00      $1.00      $1.00      $1.00     
    ##  5 Twin        $2.00      $1.00      $2.00      $1.00      $2.00      $1.00     
    ##  6 Twin        $2.00      $1.00      $2.00      $1.00      $2.00      $1.00     
    ##  7 Twin        $2.00      $3.00      $2.00      $3.00      $2.00      $3.00     
    ##  8 Single      $2.00      $3.00      $2.00      $3.00      $2.00      $3.00     
    ##  9 Twin        $4.00      $1.00      $4.00      $1.00      $4.00      $1.00     
    ## 10 Twin        $2.00      $1.00      $2.00      $1.00      $2.00      $1.00     
    ## # … with 10,022 more rows, and 15 more variables: rate_misc <chr>,
    ## #   time_in_effect <chr>, t_mf_9a_6p <chr>, t_mf_6p_10 <chr>, t_sa_9a_6p <chr>,
    ## #   t_sa_6p_10 <chr>, t_su_9a_6p <chr>, t_su_6p_10 <chr>, time_misc <chr>,
    ## #   credit_card <chr>, pay_phone <chr>, longitude <dbl>, latitude <dbl>,
    ## #   geo_local_area <chr>, meter_id <chr>
…
