…
Now I will “untidy” the dataset:

``` r
vdem_subset_untidy <- vdem_subset_tidy %>%
  pivot_wider(id_cols = c(country_name, e_regionpol_6C, e_democracy_trans, e_fh_status),
              names_from = e_boix_regime,
              values_from = c(e_migdppc, e_peaveduc, v2x_polyarchy),
              names_sep = "%"
              )

print(vdem_subset_untidy)
```

    ## # A tibble: 134 × 10
    ##    country_name  e_regionpol_6C e_democracy_trans e_fh_status `e_migdppc%democr…
    ##    <chr>                  <dbl>             <dbl>       <dbl>              <dbl>
    ##  1 Mexico                     2                 0           2              16096
    ##  2 Sweden                     5                 0           1              43746
    ##  3 Switzerland                5                 0           1              59307
    ##  4 Ghana                      4                 0           1               3809
    ##  5 South Africa               4                 0           1              12246
    ##  6 Japan                      6                 0           1              37031
    ##  7 Burma/Myanmar              6                 0           3                 NA
    ##  8 Russia                     1                 0           3                 NA
    ##  9 Egypt                      3                 0           3                 NA
    ## 10 Colombia                   2                 0           2              13218
    ## # … with 124 more rows, and 5 more variables: e_migdppc%nondemocracy <dbl>,
    ## #   e_peaveduc%democracy <dbl>, e_peaveduc%nondemocracy <dbl>,
    ## #   v2x_polyarchy%democracy <dbl>, v2x_polyarchy%nondemocracy <dbl>
…
``` r
vdem_subset_tidy_again <- vdem_subset_untidy %>% 
  pivot_longer(cols = 'e_migdppc%democracy':'v2x_polyarchy%nondemocracy', 
               names_to  = c(".value", "e_boix_regime"),
               names_sep = "%") %>%
  na.omit() %>%
  relocate(e_boix_regime, .after = e_regionpol_6C)



print(vdem_subset_tidy_again)
```

    ## # A tibble: 134 × 8
    ##    country_name  e_regionpol_6C e_boix_regime e_democracy_trans e_fh_status
    ##    <chr>                  <dbl> <chr>                     <dbl>       <dbl>
    ##  1 Mexico                     2 democracy                     0           2
    ##  2 Sweden                     5 democracy                     0           1
    ##  3 Switzerland                5 democracy                     0           1
    ##  4 Ghana                      4 democracy                     0           1
    ##  5 South Africa               4 democracy                     0           1
    ##  6 Japan                      6 democracy                     0           1
    ##  7 Burma/Myanmar              6 nondemocracy                  0           3
    ##  8 Russia                     1 nondemocracy                  0           3
    ##  9 Egypt                      3 nondemocracy                  0           3
    ## 10 Colombia                   2 democracy                     0           2
    ## # … with 124 more rows, and 3 more variables: e_migdppc <dbl>,
    ## #   e_peaveduc <dbl>, v2x_polyarchy <dbl>
…
